{"success":true,"data":{"products":[{"id":"6a620874-40fe-4249-a422-90e9220c95b7","name":"123","slug":"rick-owens-123-1770887466640","brand":"Rick Owens","description":"12","base_price":"123.00","sale_price":"12.00","category":"Outerwear","subcategory":"Unisex","condition_text":"9/10 - Like New","condition_description":"","authenticity_verified":true,"images":["/uploads/products/product-6de3d04c-2309-4e76-8daa-ff814fdf9e95.png"],"tags":"[\"rick owens\"]","is_featured":false,"is_new_arrival":false,"is_active":true,"view_count":0,"createdAt":"2026-02-12T09:11:06.644Z","updatedAt":"2026-02-12T09:11:06.644Z","variants":[{"id":"c3986173-d9d5-4a15-8ce4-3c13b76d71a3","product_id":"6a620874-40fe-4249-a422-90e9220c95b7","sku":"RIC-87466640","size":"M","color":"Black","material":"Cotton","price_adjustment":"0.00","status":"AVAILABLE","reserved_at":null,"reserved_by":null,"sold_at":null,"notes":null,"createdAt":"2026-02-12T09:11:06.664Z","updatedAt":"2026-02-12T09:11:06.664Z"}]}],"pagination":{"total":2,"page":1,"limit":"1","totalPages":2}}}